....................
----------------------------------------------------------------------
Ran 20 tests in 0.050s

OK
Name             Stmts   Miss Branch BrPart  Cover   Missing
------------------------------------------------------------
Collatz.py          63      0     20      0   100%
TestCollatz.py      82      0      2      0   100%
------------------------------------------------------------
TOTAL              145      0     22      0   100%
