1 10 20
100 200 125
201 210 89
900 1000 174
-1 100 Invalid Input
0 5 Invalid Input
-1 -100 Invalid Input
100 1 119
1001 1 179
5000 3001 238
60000 58001 304
99000 90000 333
98500 96500 297
1600 1600 30
1 1001 179
1001 2000 182
2001 3000 217
3001 4000 238
4001 5000 215
5001 6000 236
6001 7000 262
7001 8000 252
8001 9000 247
9001 10000 260
123 678 145
793 1473 182
600 2056 182
1036 1236 182
7938 7958 146
3702 9403 262
9684 92702 351
203 369 144
642 795 171
890 928 130
999 1001 143
10789 13238 268
28649 32468 285
31683 39827 324
41029 42910 288
51268 61000 340
61234 67890 330
78920 85612 320
81639 88888 333
91236 99096 333
1000 3000 217
3000 5000 238
5000 7000 262
7000 9000 252
9000 11000 268
11000 13000 263
13000 15000 276
15000 17000 271
17000 19000 279
19000 21000 274
987 432 179
876 643 179
163 1 122
8920 5432 262
1967 389 182
99999 88888 333
77755 70999 351
98765 75432 351
9828 3 262
987 432 179
200000 199900 228
999999 999998 259
999999 999999 259
800099 800090 163
100006 0 Invalid Input
0 100900 Invalid Input
-1 100000 Invalid Input
400000 -1 Invalid Input
-1 200000 Invalid Input
200000 -1 Invalid Input
100000 100005 129
200000 200010 192
400000 400900 374
898013 898100 339
199929 200000 228
495039 502839 426
111111 222222 386
222222 333333 443
333333 444444 449
444444 555555 470
555555 666666 509
666666 777777 504
777777 888888 525
888888 999999 507
100000 200000 383
234567 345678 407
747482 850382 525
888929 687938 525
183849 182839 334
177494 283948 443
850493 930394 476
572839 683929 509
749391 672828 504
949493 999999 458
172738 292939 443
949494 883828 507
183839 80192 383
82394 102034 341
18284 89198 351
139394 103949 354
188992 103939 383
12273 38384 324
458604 398495 449
80483 49294 351
888 19293 279
84838 10101 351
83882 9103 351
199130 99999 383
990000 999999 440
780000 789000 406
670000 676767 385
358735 367643 410
486958 490000 382
500000 501000 364
501000 510000 426
234567 245678 368
589326 600000 403
123456 140000 344
