.........................
----------------------------------------------------------------------
Ran 25 tests in 11.027s

OK
Name             Stmts   Miss Branch BrPart  Cover   Missing
------------------------------------------------------------
Collatz.py          40      0     14      0   100%
TestCollatz.py     101      0      2      0   100%
collatzDict.py       1      0      0      0   100%
------------------------------------------------------------
TOTAL              142      0     16      0   100%
