..................
----------------------------------------------------------------------
Ran 18 tests in 0.565s

OK
Name             Stmts   Miss Branch BrPart  Cover   Missing
------------------------------------------------------------
Collatz.py          46      0     18      0   100%
TestCollatz.py      78      0      2      0   100%
------------------------------------------------------------
TOTAL              124      0     20      0   100%
