....................
----------------------------------------------------------------------
Ran 20 tests in 0.784s

OK
Name             Stmts   Miss Branch BrPart  Cover   Missing
------------------------------------------------------------
Collatz.py          54      0     20      0   100%
TestCollatz.py      84      0      2      0   100%
------------------------------------------------------------
TOTAL              138      0     22      0   100%
